<?xml version="1.0" encoding="utf-8"?>
<!-- Generator: Adobe Illustrator 16.0.0, SVG Export Plug-In . SVG Version: 6.00 Build 0)  -->
<!DOCTYPE svg PUBLIC "-//W3C//DTD SVG 1.1//EN" "http://www.w3.org/Graphics/SVG/1.1/DTD/svg11.dtd">
<svg version="1.1" id="Capa_1" xmlns="http://www.w3.org/2000/svg" xmlns:xlink="http://www.w3.org/1999/xlink" x="0px" y="0px"
	 width="65.2px" height="59.53px" viewBox="0 0 65.2 59.53" enable-background="new 0 0 65.2 59.53" xml:space="preserve">
<path fill="#94BB1E" d="M32.361,15.548L17.195,30.713l3.294,3.294l11.872-11.872l11.87,11.872l3.294-3.294L32.361,15.548z
	 M38.005,16.985v2.685l4.659,4.658v-7.343H38.005z M32.361,23.614L22.057,33.918v9.977h7.494v-7.492h5.619v7.492h7.494v-9.977
	L32.361,23.614z"/>
<circle fill="none" stroke="#94BB1E" stroke-width="0.8" stroke-miterlimit="10" cx="32.36" cy="29.721" r="28.347"/>
</svg>
